<?xml version="1.0" encoding="utf-8"?>
<!-- Generator: Adobe Illustrator 21.0.0, SVG Export Plug-In . SVG Version: 6.00 Build 0)  -->
<svg version="1.1" id="Capa_1" xmlns="http://www.w3.org/2000/svg" xmlns:xlink="http://www.w3.org/1999/xlink" x="0px" y="0px"
	 viewBox="0 0 1852 1852" style="enable-background:new 0 0 1852 1852;" xml:space="preserve">
<path d="M1041.7,495.7c-0.4,0.3-0.7,15.9-0.7,34.5V564h4.5c12.2,0,66.4,21.8,97.5,39.2c33.7,18.9,58.9,37.6,83.9,62.1
	c42.8,42.1,69.9,87.3,83.6,139.2c3.8,14.4,5.6,25,9.5,57.6c5.5,45.9-0.8,97.1-17.5,141.9c-21.8,58.6-58.1,107-111.8,149
	c-6,4.7-13.9,10.9-17.5,13.8c-27.1,21.4-83.3,55.4-115.2,69.4c-31.4,13.9-67.5,25.6-95.5,30.8c-3.3,0.6-9.6,1.8-14,2.6
	c-30.5,5.6-71,8.1-104.7,6.5c-53.2-2.6-97.2-11.6-148.3-30.5c-18.6-6.8-51.7-23.2-71.3-35.2c-71-43.7-124.9-106.9-151.5-177.9
	c-1.8-5-4.1-11.7-5.1-15s-2.1-7.1-2.6-8.5c-0.5-1.4-1.8-6.6-3-11.5c-1.2-5-2.5-10.8-3.1-13c-4.2-18.1-6.3-51-4.9-76.9
	c0.6-10.4,1.3-19.2,1.5-19.5c0.2-0.4,0.9-4.5,1.5-9.1c0.6-4.7,1.5-10.1,2-12c0.5-1.9,1.8-7.6,3-12.5c1.2-5,2.5-10.1,3-11.5
	c0.5-1.4,1.6-5.2,2.6-8.5c1.6-5.6,7.3-21.4,9.3-26c11.2-25.4,25-49.4,39.8-69.1c38.8-51.8,47-61.6,66.4-79.6
	c37-34.3,80.5-61.3,132.5-82.1c24.4-9.8,59-19.9,84.4-24.6c6.3-1.2,13.5-2.6,16-3.1s7.2-1.2,10.5-1.5c10.5-1.1,9.5,1.6,9.5-25.9
	v-24.3l-10.7-0.7c-27.5-1.7-87.1,3-133.3,10.5c-57.6,9.2-108.9,28-164.5,60.1c-77.6,44.8-144.1,108-194.9,185
	c-17.5,26.6-26.7,45.9-38.4,80.4c-18.9,55.8-24.1,85.7-24.1,137.9c0,46.1,5.2,82.9,18,127c2.5,8.6,9.7,29.9,11.5,34
	c0.7,1.6,3.6,8.6,6.4,15.5c25,60.2,66.1,118.8,116.9,166.4c71.3,66.9,160.1,113,259.7,135.1c43.6,9.6,75.3,13.1,126.9,14.1
	c47.2,0.9,73.6-1.6,118-11.1c17.4-3.7,50.2-12.7,55-15c1.7-0.8,11.1-4.4,20.9-8.1c40.3-14.9,66.3-26.8,102.3-47
	c35.4-19.9,80.6-50.3,94.4-63.5c1.9-1.9,9.3-8.1,16.4-13.9c14.3-11.5,65.9-62.4,79.6-78.5c23.6-27.6,44.4-60.2,63.9-100
	c73.7-150,72.9-325-1.9-474.4c-14-28-25.4-47-42.7-71.1c-5.7-8-10.5-15-10.6-15.5c-0.2-0.7,46.6-1.2,138.2-1.5l138.5-0.5v-34v-34
	l-269.6-0.3C1163.6,495.1,1042,495.3,1041.7,495.7z"/>
</svg>
